%YAML 1.1
%TAG !u! tag:unity3d.com,2011:
--- !u!114 &11400000
MonoBehaviour:
  m_ObjectHideFlags: 0
  m_CorrespondingSourceObject: {fileID: 0}
  m_PrefabInstance: {fileID: 0}
  m_PrefabAsset: {fileID: 0}
  m_GameObject: {fileID: 0}
  m_Enabled: 1
  m_EditorHideFlags: 0
  m_Script: {fileID: 11500000, guid: 6d3ad6b38bb91204588ae6067d616e4b, type: 3}
  m_Name: Idiot
  m_EditorClassIdentifier: 
  IsNPC: 1
  idleTime:
    minValue: 0
    maxValue: 0.98833203
  moveTime:
    minValue: 1.2113931
    maxValue: 4.8970456
  fireTime:
    minValue: 0.2745367
    maxValue: 0.7995887
